…
Loading data and libraries
--------------------------

The climate data used for this survey,"repdata-data-StormData.csv.bz2",
is provided within the course material and downloaded from the Coursera
webpage on May 3, 2017, 5:45 PM. The data set will be stored in the
table dataframe format of the dplyr package.

    df<-tbl_df(read.csv("repdata-data-StormData.csv.bz2", header=TRUE))
    print(df)

    ## # A tibble: 902,297 × 37
    ##    STATE__           BGN_DATE BGN_TIME TIME_ZONE COUNTY COUNTYNAME  STATE
    ##      <dbl>             <fctr>   <fctr>    <fctr>  <dbl>     <fctr> <fctr>
    ## 1        1  4/18/1950 0:00:00     0130       CST     97     MOBILE     AL
    ## 2        1  4/18/1950 0:00:00     0145       CST      3    BALDWIN     AL
    ## 3        1  2/20/1951 0:00:00     1600       CST     57    FAYETTE     AL
    ## 4        1   6/8/1951 0:00:00     0900       CST     89    MADISON     AL
    ## 5        1 11/15/1951 0:00:00     1500       CST     43    CULLMAN     AL
    ## 6        1 11/15/1951 0:00:00     2000       CST     77 LAUDERDALE     AL
    ## 7        1 11/16/1951 0:00:00     0100       CST      9     BLOUNT     AL
    ## 8        1  1/22/1952 0:00:00     0900       CST    123 TALLAPOOSA     AL
    ## 9        1  2/13/1952 0:00:00     2000       CST    125 TUSCALOOSA     AL
    ## 10       1  2/13/1952 0:00:00     2000       CST     57    FAYETTE     AL
    ## # ... with 902,287 more rows, and 30 more variables: EVTYPE <fctr>,
    ## #   BGN_RANGE <dbl>, BGN_AZI <fctr>, BGN_LOCATI <fctr>, END_DATE <fctr>,
    ## #   END_TIME <fctr>, COUNTY_END <dbl>, COUNTYENDN <lgl>, END_RANGE <dbl>,
    ## #   END_AZI <fctr>, END_LOCATI <fctr>, LENGTH <dbl>, WIDTH <dbl>, F <int>,
    ## #   MAG <dbl>, FATALITIES <dbl>, INJURIES <dbl>, PROPDMG <dbl>,
    ## #   PROPDMGEXP <fctr>, CROPDMG <dbl>, CROPDMGEXP <fctr>, WFO <fctr>,
    ## #   STATEOFFIC <fctr>, ZONENAMES <fctr>, LATITUDE <dbl>, LONGITUDE <dbl>,
    ## #   LATITUDE_E <dbl>, LONGITUDE_ <dbl>, REMARKS <fctr>, REFNUM <dbl>
…
